…
```r
# to do operations by groups, like bys: sum 
# (you can add more variables to the list at will)
# note that we need to ignore missing values with na.rm = TRUE
sinac %>% group_by(ent_res_cve) %>% 
  summarise(avg_weight = mean(peso_nac_vivo, na.rm = TRUE),
            min_weight = min(peso_nac_vivo, na.rm = TRUE))
```

```
## # A tibble: 33 x 3
##    ent_res_cve avg_weight min_weight
##          <dbl>      <dbl>      <dbl>
##  1           1      3115.        500
##  2           2      3310.       1800
##  3           3      3301.        950
##  4           4      3092        1000
##  5           5      3278.       1000
##  6           6      3345.       1875
##  7           7      3185.       1115
##  8           8      3247.       1550
##  9           9      3051.        792
## 10          10      3225.       1500
## # … with 23 more rows
```

Be careful saving data as grouped, as this may affect future modifications you make to the data in unexpected ways!


```r
# view the data sorted: sort
sinac %>% arrange(edad_madre,apgar)
```

```
## # A tibble: 19,784 x 18
##    edad_madre numero_embarazos talla_nac_vivo peso_nac_vivo mun_res_cve ent_res_cve mun_nac_cve
##         <dbl>            <dbl>          <dbl>         <dbl>       <dbl>       <dbl>       <dbl>
##  1          9                1             51          3100           4           2           4
##  2          9                1             54          3100           9           1           7
##  3         10                1             NA            NA          12          25          12
##  4         10                1             52          3305          17          11          17
##  5         10                1             53          3210          92          31          96
##  6         10                1             50          2620           2           9           2
##  7         10                2             48          3100          17          11          17
##  8         10                1             50          3400          17          18          17
##  9         10                1             NA            NA         122          15         122
## 10         10                2             51          3400           3          11           3
## # … with 19,774 more rows, and 11 more variables: ent_nac_cve <dbl>, tot_consult <dbl>,
## #   schooling_mother <dbl>, dia_nac_hijo <dbl>, mes_nac_hijo <dbl>, year_nac_hijo <dbl>,
## #   sexo_nac <dbl+lbl>, semanas_gest <dbl>, apgar <dbl>, proced <dbl+lbl>, atendio <dbl+lbl>
```
…
